{
	"credit": "Made with Blockbench",
	"ambientocclusion": false,
    "textures": {
		"base": "fennifith:spelunking/shield"
	},
	"elements": [
		{
			"name": "Element",
			"from": [2, 8, 6],
			"to": [14, 16, 7],
			"faces": {
				"east": {"uv": [0, 0.25, 0.25, 2.25], "texture": "#base"},
				"west": {"uv": [3.25, 0.25, 3.5, 2.25], "texture": "#base"},
				"up": {"uv": [0.25, 0, 3.25, 0.25], "texture": "#base"},
				"down": {"uv": [3.5, 0.25, 6.5, 0], "rotation": 180, "texture": "#base"}
			}
		},
		{
			"name": "Element",
			"from": [3, 4, 6],
			"to": [13, 18, 7],
			"faces": {
				"east": {"uv": [0, 0.25, 0.25, 3.75], "texture": "#base"},
				"west": {"uv": [3.25, 0.25, 3.5, 3.75], "texture": "#base"},
				"up": {"uv": [0.5, 0, 3, 0.25], "texture": "#base"},
				"down": {"uv": [3.75, 0.25, 6.25, 0], "rotation": 180, "texture": "#base"}
			}
		},
		{
			"name": "Element",
			"from": [4, 1, 6],
			"to": [12, 4, 7],
			"faces": {
				"east": {"uv": [0, 3.75, 0.25, 4.5], "texture": "#base"},
				"west": {"uv": [3.25, 3.75, 3.5, 4.5], "texture": "#base"},
				"up": {"uv": [0.75, 0, 2.75, 0.25], "texture": "#base"},
				"down": {"uv": [4, 0.25, 6, 0], "rotation": 180, "texture": "#base"}
			}
		},
		{
			"name": "Element",
			"from": [5, -1, 6],
			"to": [11, 1, 7],
			"faces": {
				"east": {"uv": [0, 4, 0.25, 4.5], "texture": "#base"},
				"west": {"uv": [3.25, 4, 3.5, 4.5], "texture": "#base"},
				"up": {"uv": [1, 0, 2.5, 0.25], "texture": "#base"},
				"down": {"uv": [4.25, 0.25, 5.75, 0], "rotation": 180, "texture": "#base"}
			}
		},
		{
			"name": "Element",
			"from": [6, -3, 6],
			"to": [10, -1, 7],
			"faces": {
				"east": {"uv": [0, 4, 0.25, 4.5], "texture": "#base"},
				"west": {"uv": [3.25, 4, 3.5, 4.5], "texture": "#base"},
				"up": {"uv": [1.25, 0, 2.25, 0.25], "texture": "#base"},
				"down": {"uv": [4.5, 0.25, 5.5, 0], "rotation": 180, "texture": "#base"}
			}
		},
		{
			"name": "Element",
			"from": [7, -4, 6],
			"to": [9, -3, 7],
			"faces": {
				"east": {"uv": [0, 4.25, 0.25, 4.5], "texture": "#base"},
				"west": {"uv": [3.25, 4.25, 3.5, 4.5], "texture": "#base"},
				"up": {"uv": [1.5, 0, 2, 0.25], "texture": "#base"},
				"down": {"uv": [4.75, 0.25, 5.25, 0], "rotation": 180, "texture": "#base"}
			}
		},
		{
			"name": "Element",
			"from": [2, -4, 6],
			"to": [14, 18, 6],
			"faces": {
				"north": {"uv": [0.25, 0.25, 3.25, 5.75], "texture": "#base"}
			}
		},
		{
			"name": "Element",
			"from": [2, -4, 7],
			"to": [14, 18, 7],
			"faces": {
				"south": {"uv": [3.5, 0.25, 6.5, 5.75], "texture": "#base"}
			}
		},
		{
			"from": [7, 5, 7],
			"to": [9, 11, 13],
			"faces": {
				"north": {"uv": [10, 1.5, 10.5, 3], "texture": "#base"},
				"east": {"uv": [8.5, 1.5, 10, 3], "texture": "#base"},
				"south": {"uv": [8, 1.5, 8.5, 3], "texture": "#base"},
				"west": {"uv": [6.5, 1.5, 8, 3], "texture": "#base"},
				"up": {"uv": [8, 0, 8.5, 1.5], "texture": "#base"},
				"down": {"uv": [8.5, 0, 9, 1.5], "texture": "#base"}
			}
		}
	],
	"gui_light": "front",
	"overrides": [],
	"display": {
		"thirdperson_righthand": {
			"rotation": [30, -35, 0],
			"translation": [1, -1, -1],
			"scale": [1.01, 1.01, 1.01]
		},
		"thirdperson_lefthand": {
			"rotation": [30, -35, 0],
			"translation": [1, -1, -1],
			"scale": [1.01, 1.01, 1.01]
		},
		"firstperson_righthand": {
			"rotation": [0, 0, 5],
			"translation": [-3, -2, 2],
			"scale": [0.9, 0.9, 0.9]
		},
		"ground": {
			"translation": [0, 2, 0],
			"scale": [0.5, 0.5, 0.5]
		},
		"gui": {
			"rotation": [0, -180, 0],
			"translation": [0, 0.5, 0],
			"scale": [0.7, 0.7, 0.7]
		},
		"head": {
			"translation": [0, 6, -7]
		}
	}
}