{
	"type": "minecraft:jigsaw",
	"biomes": ["fennifith:muddy_desert","fennifith:muddy_forest","fennifith:muddy_hills","fennifith:muddy_plains"],
	"step": "surface_structures",
	"spawn_overrides": {},
	"terrain_adaptation": "none",
	"start_pool": "fennifith:spelunking/labyrinth/entrance_pit",
	"size": 7,
	"start_height": {
		"absolute": -43
	},
	"project_start_to_heightmap": "WORLD_SURFACE_WG",
	"max_distance_from_center": 116,
	"use_expansion_hack": false
}