{
	"type": "minecraft:jigsaw",
	"biomes": "#fennifith:spelunking/has_structure/campsite",
	"step": "underground_structures",
	"spawn_overrides": {
		"monster": {
			"bounding_box": "piece",
			"spawns": [
				{
					"type": "minecraft:pillager",
					"weight": 10,
					"minCount": 3,
					"maxCount": 4
				},
				{
					"type": "minecraft:vindicator",
					"weight": 10,
					"minCount": 3,
					"maxCount": 7
				}
			]
		}
	},
	"terrain_adaptation": "none",
	"start_pool": "fennifith:spelunking/mansion/start",
	"size": 7,
	"start_height": {
		"absolute": 15
	},
	"max_distance_from_center": 80,
	"use_expansion_hack": false
}