{
	"type": "minecraft:jigsaw",
	"biomes": "#fennifith:spelunking/has_structure/mineshaft",
	"step": "strongholds",
	"spawn_overrides": {},
	"terrain_adaptation": "beard_thin",
	"start_pool": "fennifith:spelunking/start",
	"size": 1,
	"start_height": {
		"absolute": 0
	},
	"project_start_to_heightmap": "WORLD_SURFACE_WG",
	"max_distance_from_center": 80,
	"use_expansion_hack": false
}
