{
	"name": "fennifith:spelunking/monument/pathways",
	"fallback": "minecraft:empty",
	"elements": [
		{
			"weight": 2,
			"element": {
				"element_type": "minecraft:single_pool_element",
				"location": "fennifith:spelunking/monument_path1",
				"projection": "rigid",
				"processors": "fennifith:spelunking/degrade_monument"
			}
		},
		{
			"weight": 2,
			"element": {
				"element_type": "minecraft:single_pool_element",
				"location": "fennifith:spelunking/monument_path2",
				"projection": "rigid",
				"processors": "fennifith:spelunking/degrade_monument"
			}
		},
		{
			"weight": 1,
			"element": {
				"element_type": "minecraft:single_pool_element",
				"location": "fennifith:spelunking/monument_path3",
				"projection": "rigid",
				"processors": "minecraft:empty"
			}
		},
		{
			"weight": 1,
			"element": {
				"element_type": "minecraft:single_pool_element",
				"location": "fennifith:spelunking/monument_path4",
				"projection": "rigid",
				"processors": "minecraft:empty"
			}
		},
		{
			"weight": 1,
			"element": {
			  "element_type": "minecraft:empty_pool_element",
			  "projection": "rigid"
			}
		}
	]
}