{
	"structures": [
		{
			"structure": "fennifith:spelunking/ruined_portal",
			"weight": 2
		},
		{
			"structure": "fennifith:spelunking/labyrinth_pit",
			"weight": 2
		},
		{
			"structure": "fennifith:spelunking/labyrinth_desert",
			"weight": 2
		},
		{
			"structure": "fennifith:spelunking/labyrinth_forest",
			"weight": 2
		},
		{
			"structure": "fennifith:spelunking/labyrinth",
			"weight": 2
		},
		{
			"structure": "fennifith:spelunking/village",
			"weight": 1
		}
	],
	"placement": {
		"type": "minecraft:random_spread",
		"spacing": 8,
		"separation": 5,
		"salt": 1528592817,
		"exclusion_zone": {
			"chunk_count": 8,
			"other_set": "fennifith:spelunking/start"
		}
	}
}