{
  "type": "minecraft:entity",
  "pools": [
    {
      "bonus_rolls": 0.0,
      "entries": [
        {
          "type": "minecraft:item",
          "functions": [
            {
              "add": false,
              "count": {
                "type": "minecraft:uniform",
                "max": 2.0,
                "min": 0.0
              },
              "function": "minecraft:set_count"
            },
            {
              "count": {
                "type": "minecraft:uniform",
                "max": 1.0,
                "min": 0.0
              },
              "function": "minecraft:looting_enchant"
            }
          ],
          "name": "minecraft:rotten_flesh"
        }
      ],
      "rolls": 1.0
    },
    {
      "bonus_rolls": 0.0,
      "conditions": [
        {
          "condition": "minecraft:killed_by_player"
        },
        {
          "chance": 0.11,
          "condition": "minecraft:random_chance_with_looting",
          "looting_multiplier": 0.02
        }
      ],
      "entries": [
        {
          "type": "minecraft:item",
          "name": "minecraft:copper_ingot"
        }
      ],
      "rolls": 1.0
    },
    {
      "rolls": 1.0,
      "bonus_rolls": 0.0,
      "conditions": [
        {
          "condition": "minecraft:killed_by_player"
        },
        {
          "condition": "minecraft:entity_properties",
          "entity": "this",
          "predicate": {
            "location": {
              "dimension": "fennifith:spelunking"
            }
          }
        }
      ],
      "entries": [
        {
          "type": "minecraft:item",
          "functions": [
            {
              "add": false,
              "count": {
                "type": "minecraft:uniform",
                "max": <<config.loot_shards_mob_normal[1]>>,
                "min": <<config.loot_shards_mob_normal[0]>>
              },
              "function": "minecraft:set_count"
            },
            {
              "function": "minecraft:set_nbt",
              "tag": "<< items.chaos_shard.nbt | dump_nbt | replace("\\", "\\\\") | replace("\"", "\\\"") >>"
            }
          ],
          "name": "minecraft:<<items.chaos_shard.id>>"
        }
      ]
    }
  ]
}