{
  "type": "minecraft:entity",
  "pools": [
    {
      "rolls": 1.0,
      "bonus_rolls": 0.0,
      "conditions": [
        {
          "condition": "minecraft:killed_by_player"
        },
        {
          "condition": "minecraft:entity_properties",
          "entity": "this",
          "predicate": {
            "location": {
              "dimension": "fennifith:spelunking"
            }
          }
        }
      ],
      "entries": [
        {
          "type": "minecraft:item",
          "functions": [
            {
              "add": false,
              "count": {
                "type": "minecraft:uniform",
                "max": <<config.loot_shards_mob_normal[1]>>,
                "min": <<config.loot_shards_mob_normal[0]>>
              },
              "function": "minecraft:set_count"
            },
            {
              "function": "minecraft:set_nbt",
              "tag": "<< items.chaos_shard.nbt | dump_nbt | replace("\\", "\\\\") | replace("\"", "\\\"") >>"
            }
          ],
          "name": "minecraft:<<items.chaos_shard.id>>"
        }
      ]
    },
    {
      "rolls": 1.0,
      "bonus_rolls": 0.0,
      "conditions": [
        {
          "condition": "minecraft:entity_properties",
          "entity": "this",
          "predicate": {
            "nbt": "{Tags:[\"spl.rift_spawned\"]}",
            "location": {
              "dimension": "fennifith:spelunking"
            }
          }
        }
      ],
      "entries": [
        {
          "type": "minecraft:item",
          "functions": [
            {
              "add": false,
              "count": {
                "type": "minecraft:uniform",
                "max": <<config.loot_shards_mob_rift[1]>>,
                "min": <<config.loot_shards_mob_rift[0]>>
              },
              "function": "minecraft:set_count"
            },
            {
              "function": "minecraft:set_nbt",
              "tag": "<< items.chaos_shard.nbt | dump_nbt | replace("\\", "\\\\") | replace("\"", "\\\"") >>"
            }
          ],
          "name": "minecraft:<<items.chaos_shard.id>>"
        }
      ]
    }
  ]
}