{
	"name": "fennifith:spelunking/mansion/building",
	"fallback": "minecraft:empty",
	"elements": [
		{
			"weight": 1,
			"element": {
				"element_type": "minecraft:single_pool_element",
				"location": "fennifith:spelunking/mansion_hall_stone",
				"projection": "rigid",
				"processors": "fennifith:spelunking/degrade_mineshaft"
			}
		},
		{
			"weight": 1,
			"element": {
				"element_type": "minecraft:single_pool_element",
				"location": "fennifith:spelunking/mansion_hall_stone2",
				"projection": "rigid",
				"processors": "fennifith:spelunking/degrade_mineshaft"
			}
		},
		{
			"weight": 1,
			"element": {
				"element_type": "minecraft:single_pool_element",
				"location": "fennifith:spelunking/mansion_room",
				"projection": "rigid",
				"processors": "fennifith:spelunking/degrade_mineshaft"
			}
		},
		{
			"weight": 1,
			"element": {
				"element_type": "minecraft:single_pool_element",
				"location": "fennifith:spelunking/mansion_room2",
				"projection": "rigid",
				"processors": "fennifith:spelunking/degrade_mineshaft"
			}
		},
		{
			"weight": 1,
			"element": {
				"element_type": "minecraft:single_pool_element",
				"location": "fennifith:spelunking/mansion_room3",
				"projection": "rigid",
				"processors": "fennifith:spelunking/degrade_mineshaft"
			}
		},
		{
			"weight": 1,
			"element": {
				"element_type": "minecraft:single_pool_element",
				"location": "fennifith:spelunking/mansion_room4",
				"projection": "rigid",
				"processors": "fennifith:spelunking/degrade_mineshaft"
			}
		},
		{
			"weight": 1,
			"element": {
				"element_type": "minecraft:single_pool_element",
				"location": "fennifith:spelunking/mansion_hall_intersection",
				"projection": "rigid",
				"processors": "fennifith:spelunking/degrade_mineshaft"
			}
		},
		{
			"weight": 1,
			"element": {
				"element_type": "minecraft:single_pool_element",
				"location": "fennifith:spelunking/mansion_ladder",
				"projection": "rigid",
				"processors": "fennifith:spelunking/degrade_mineshaft"
			}
		},
		{
			"weight": 1,
			"element": {
				"element_type": "minecraft:empty_pool_element",
				"projection": "rigid"
			}
		}
	]
}