{
	"name": "fennifith:spelunking/labyrinth/entrance_pit",
	"fallback": "minecraft:empty",
	"elements": [
		{
			"weight": 1,
			"element": {
				"element_type": "minecraft:single_pool_element",
				"location": "fennifith:spelunking/labyrinth_entrance_pit",
				"projection": "rigid",
				"processors": "fennifith:spelunking/degrade_village"
			}
		}
	]
}