{
  "feature": "fennifith:patch_bone_birch",
  "placement": [
    {
      "type": "minecraft:in_square"
    },
    {
      "type": "minecraft:heightmap",
      "heightmap": "MOTION_BLOCKING"
    }
  ]
}
