{
	"name": "fennifith:spelunking/campsite",
	"fallback": "minecraft:empty",
	"elements": [
		{
			"weight": 1,
			"element": {
				"element_type": "minecraft:single_pool_element",
				"location": "fennifith:spelunking/campsite_bell",
				"projection": "rigid",
				"processors": "fennifith:spelunking/degrade_campsite"
			}
		},
		{
			"weight": 1,
			"element": {
				"element_type": "minecraft:single_pool_element",
				"location": "fennifith:spelunking/campsite_cauldron",
				"projection": "rigid",
				"processors": "fennifith:spelunking/degrade_campsite"
			}
		},
		{
			"weight": 1,
			"element": {
				"element_type": "minecraft:single_pool_element",
				"location": "fennifith:spelunking/campsite_cauldron2",
				"projection": "rigid",
				"processors": "fennifith:spelunking/degrade_campsite"
			}
		},
		{
			"weight": 1,
			"element": {
				"element_type": "minecraft:single_pool_element",
				"location": "fennifith:spelunking/campsite_farm",
				"projection": "rigid",
				"processors": "fennifith:spelunking/degrade_campsite"
			}
		},
		{
			"weight": 1,
			"element": {
				"element_type": "minecraft:single_pool_element",
				"location": "fennifith:spelunking/campsite_lantern",
				"projection": "rigid",
				"processors": "fennifith:spelunking/degrade_campsite"
			}
		},
		{
			"weight": 1,
			"element": {
				"element_type": "minecraft:single_pool_element",
				"location": "fennifith:spelunking/campsite_lantern2",
				"projection": "rigid",
				"processors": "fennifith:spelunking/degrade_campsite"
			}
		},
		{
			"weight": 1,
			"element": {
				"element_type": "minecraft:single_pool_element",
				"location": "fennifith:spelunking/campsite_logs",
				"projection": "rigid",
				"processors": "fennifith:spelunking/degrade_campsite"
			}
		},
		{
			"weight": 1,
			"element": {
				"element_type": "minecraft:single_pool_element",
				"location": "fennifith:spelunking/campsite_logs2",
				"projection": "rigid",
				"processors": "fennifith:spelunking/degrade_campsite"
			}
		},
		{
			"weight": 1,
			"element": {
				"element_type": "minecraft:single_pool_element",
				"location": "fennifith:spelunking/campsite_ore",
				"projection": "rigid",
				"processors": "fennifith:spelunking/degrade_campsite"
			}
		},
		{
			"weight": 1,
			"element": {
				"element_type": "minecraft:single_pool_element",
				"location": "fennifith:spelunking/campsite_path",
				"projection": "rigid",
				"processors": "fennifith:spelunking/degrade_campsite"
			}
		},
		{
			"weight": 2,
			"element": {
				"element_type": "minecraft:single_pool_element",
				"location": "fennifith:spelunking/campsite_path2",
				"projection": "rigid",
				"processors": "fennifith:spelunking/degrade_campsite"
			}
		},
		{
			"weight": 1,
			"element": {
				"element_type": "minecraft:single_pool_element",
				"location": "fennifith:spelunking/campsite_tree",
				"projection": "rigid",
				"processors": "fennifith:spelunking/degrade_campsite"
			}
		},
		{
			"weight": 14,
			"element": {
				"element_type": "minecraft:empty_pool_element",
				"projection": "rigid"
			}
		}
	]
}