{
	"type": "minecraft:disk",
	"config": {
	  "half_height": 1,
	  "radius": {
		"type": "minecraft:uniform",
		"value": {
		  "max_inclusive": 7,
		  "min_inclusive": 3
		}
	  },
	  "state_provider": {
		"fallback": {
		  "type": "minecraft:weighted_state_provider",
		  "entries": [
			{
				"data": {
					"Name": "minecraft:rooted_dirt"
				},
				"weight": 2
			},
			{
				"data": {
					"Name": "minecraft:dirt"
				},
				"weight": 1
			}
		  ]
		},
		"rules": []
	  },
	  "target": {
		"type": "minecraft:matching_blocks",
		"blocks": [
			"minecraft:mud",
			"minecraft:sand",
			"minecraft:grass_block",
			"minecraft:netherrack",
			"minecraft:crimson_nylium",
			"minecraft:soul_sand",
			"minecraft:soul_soil"
		]
	  }
	}
  }