{
	"type": "minecraft:disk",
	"config": {
	  "half_height": 1,
	  "radius": {
		"type": "minecraft:uniform",
		"value": {
		  "max_inclusive": 7,
		  "min_inclusive": 3
		}
	  },
	  "state_provider": {
		"fallback": {
		  "type": "minecraft:simple_state_provider",
		  "state": {
			"Name": "minecraft:coarse_dirt"
		  }
		},
		"rules": []
	  },
	  "target": {
		"type": "minecraft:matching_blocks",
		"blocks": [
			"minecraft:grass_block",
			"minecraft:mud",
			"minecraft:brown_terracotta"
		]
	  }
	}
  }