{
  "type": "minecraft:vegetation_patch",
  "config": {
    "depth": 1,
    "extra_bottom_block_chance": 0.0,
    "extra_edge_column_chance": 0.3,
    "ground_state": {
      "type": "minecraft:weighted_state_provider",
      "entries": [
        {
          "data": {
            "Name": "minecraft:dead_tube_coral_block"
          },
          "weight": 10
        },
        {
          "data": {
            "Name": "minecraft:dead_brain_coral_block"
          },
          "weight": 10
        },
        {
          "data": {
            "Name": "minecraft:dead_bubble_coral_block"
          },
          "weight": 10
        },
        {
          "data": {
            "Name": "minecraft:dead_fire_coral_block"
          },
          "weight": 10
        },
        {
          "data": {
            "Name": "minecraft:dead_horn_coral_block"
          },
          "weight": 10
        }
      ]
    },
    "replaceable": "#minecraft:moss_replaceable",
    "surface": "floor",
    "vegetation_chance": 0.3,
    "vegetation_feature": {
      "feature": "fennifith:patch_dried_coral",
      "placement": []
    },
    "vertical_range": 5,
    "xz_radius": {
      "type": "minecraft:uniform",
      "value": {
        "max_inclusive": 7,
        "min_inclusive": 4
      }
    }
  }
}