{
	"type": "minecraft:waterlogged_vegetation_patch",
	"config": {
		"depth": 3,
		"extra_bottom_block_chance": 0.8,
		"extra_edge_column_chance": 0.7,
		"ground_state": {
			"type": "minecraft:weighted_state_provider",
			"entries": [
				{
					"data": {
						"Name": "minecraft:stripped_mangrove_log",
						"Properties": {
							"axis": "y"
						}
					},
					"weight": 1
				},
				{
					"data": {
						"Name": "minecraft:red_terracotta"
					},
					"weight": 1
				}
			]
		},
		"replaceable": "#minecraft:lush_ground_replaceable",
		"surface": "floor",
		"vegetation_chance": 0.1,
		"vegetation_feature": {
			"feature": "fennifith:vegetation_platform_waterlogged",
			"placement": []
		},
		"vertical_range": 5,
		"xz_radius": {
			"type": "minecraft:uniform",
			"value": {
				"max_inclusive": 7,
				"min_inclusive": 4
			}
		}
	}
}