{
  "type": "minecraft:huge_fungus",
  "config": {
    "hat_state": {
      "Name": "minecraft:pink_stained_glass"
    },
    "decor_state": {
      "Name": "minecraft:pearlescent_froglight",
      "Properties": {
        "axis": "y"
      }
    },
    "stem_state": {
      "Name": "minecraft:mushroom_stem",
      "Properties": {
        "down": "false",
        "east": "false",
        "north": "false",
        "south": "false",
        "up": "false",
        "west": "false"
      }
    },
    "valid_base_block": {
      "Name": "minecraft:crimson_nylium"
    },
    "replaceable_blocks": {
      "type": "minecraft:true"
    },
    "planted": false
  }
}
