{
	"type": "minecraft:simple_block",
	"config": {
		"to_place": {
			"type": "minecraft:weighted_state_provider",
			"entries": [
				{
					"data": {
						"Name": "minecraft:dead_brain_coral",
						"Properties": {
							"waterlogged": "true"
						}
					},
					"weight": 5
				},
				{
					"data": {
						"Name": "minecraft:dead_bubble_coral",
						"Properties": {
							"waterlogged": "true"
						}
					},
					"weight": 5
				},
				{
					"data": {
						"Name": "minecraft:dead_fire_coral",
						"Properties": {
							"waterlogged": "true"
						}
					},
					"weight": 5
				},
				{
					"data": {
						"Name": "minecraft:dead_horn_coral",
						"Properties": {
							"waterlogged": "true"
						}
					},
					"weight": 5
				},
				{
					"data": {
						"Name": "minecraft:dead_tube_coral",
						"Properties": {
							"waterlogged": "true"
						}
					},
					"weight": 5
				},
				{
					"data": {
						"Name": "minecraft:sea_pickle",
						"Properties": {
							"pickles": "3",
							"waterlogged": "true"
						}
					},
					"weight": 10
				}
			]
		}
	}
}