{
	"name": "fennifith:spelunking/mineshaft/hallway",
	"fallback": "minecraft:empty",
	"elements": [
		{
			"weight": 1,
			"element": {
				"element_type": "minecraft:single_pool_element",
				"location": "fennifith:spelunking/mineshaft_hallway",
				"projection": "rigid",
				"processors": "fennifith:spelunking/degrade_mineshaft"
			}
		},
		{
			"weight": 1,
			"element": {
				"element_type": "minecraft:single_pool_element",
				"location": "fennifith:spelunking/mineshaft_hallway_long1",
				"projection": "rigid",
				"processors": "fennifith:spelunking/degrade_mineshaft"
			}
		},
		{
			"weight": 1,
			"element": {
				"element_type": "minecraft:single_pool_element",
				"location": "fennifith:spelunking/mineshaft_hallway_long2",
				"projection": "rigid",
				"processors": "fennifith:spelunking/degrade_mineshaft"
			}
		},
		{
			"weight": 1,
			"element": {
				"element_type": "minecraft:single_pool_element",
				"location": "fennifith:spelunking/mineshaft_hallway_long3",
				"projection": "rigid",
				"processors": "fennifith:spelunking/degrade_mineshaft"
			}
		},
		{
			"weight": 1,
			"element": {
				"element_type": "minecraft:single_pool_element",
				"location": "fennifith:spelunking/mineshaft_hallway_long4",
				"projection": "rigid",
				"processors": "fennifith:spelunking/degrade_mineshaft"
			}
		},
		{
			"weight": 1,
			"element": {
				"element_type": "minecraft:empty_pool_element",
				"projection": "rigid"
			}
		}
	]
}